…
``` r
library(knitr)        # load functions for formatting tables

# get data from rcfss package
# install latest version if not already installed
# devtools::install_github("uc-cfss/rcfss")
library(rcfss)

# load the data
data("gun_deaths")
gun_deaths
```

    ## # A tibble: 100,798 × 10
    ##       id  year month       intent police   sex   age
    ##    <int> <int> <dbl>        <chr>  <int> <chr> <int>
    ## 1      1  2012     1      Suicide      0     M    34
    ## 2      2  2012     1      Suicide      0     F    21
    ## 3      3  2012     1      Suicide      0     M    60
    ## 4      4  2012     2      Suicide      0     M    64
    ## 5      5  2012     2      Suicide      0     M    31
    ## 6      6  2012     2      Suicide      0     M    17
    ## 7      7  2012     2 Undetermined      0     M    48
    ## 8      8  2012     3      Suicide      0     M    41
    ## 9      9  2012     2   Accidental      0     M    50
    ## 10    10  2012     2      Suicide      0     M    NA
    ## # ... with 100,788 more rows, and 3 more variables: race <chr>,
    ## #   place <chr>, education <fctr>
…
Are police-involved gun deaths significantly different from other gun deaths? Assess the relationship between police involvement and age, police involvement and race, and the intersection of all three variables.
-------------------------------------------------------------------------------------------------------------------------------------------------------------------------------------------------------------------

``` r
# label police involvement
gun_deaths <- gun_deaths %>%
  mutate(police = factor(police, levels = c(1:0), labels = c("Police involved",
                                                             "No police involved")))

# police and age
gun_deaths %>%
  count(police, age)
```

    ## Source: local data frame [172 x 3]
    ## Groups: police [?]
    ## 
    ##             police   age     n
    ##             <fctr> <int> <int>
    ## 1  Police involved    12     1
    ## 2  Police involved    13     1
    ## 3  Police involved    14     1
    ## 4  Police involved    15     5
    ## 5  Police involved    16     7
    ## 6  Police involved    17    13
    ## 7  Police involved    18    24
    ## 8  Police involved    19    28
    ## 9  Police involved    20    34
    ## 10 Police involved    21    43
    ## # ... with 162 more rows
…
``` r
# police, race, and age
gun_deaths %>%
  count(police, race, age)
```

    ## Source: local data frame [671 x 4]
    ## Groups: police, race [?]
    ## 
    ##             police                   race   age     n
    ##             <fctr>                  <chr> <int> <int>
    ## 1  Police involved Asian/Pacific Islander    19     1
    ## 2  Police involved Asian/Pacific Islander    20     1
    ## 3  Police involved Asian/Pacific Islander    21     3
    ## 4  Police involved Asian/Pacific Islander    22     4
    ## 5  Police involved Asian/Pacific Islander    25     2
    ## 6  Police involved Asian/Pacific Islander    27     3
    ## 7  Police involved Asian/Pacific Islander    29     1
    ## 8  Police involved Asian/Pacific Islander    31     1
    ## 9  Police involved Asian/Pacific Islander    32     1
    ## 10 Police involved Asian/Pacific Islander    34     2
    ## # ... with 661 more rows
…
